{
  "public": {

    "astronomer": {
      "appId": "uwckjmHLnfJ3wzogq",
      "disableUserTracking": false,
      "disableRouteTracking": false,
      "disableMethodTracking": false
    },

    "kadira": {
      "appId": "zbtuAva6XXN9fAAun",
      "appSecret": "84064dbb-0699-4e05-8d31-7019f64923e9"
     }

  },

  "private": {

  },

  "AWSAccessKeyId": "AKIAJSYZWYY4HT75RN6A",
  "AWSSecretAccessKey": "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"
}
