<?xml version="1.0" encoding="utf-8"?>
<!-- Generator: Adobe Illustrator 19.1.0, SVG Export Plug-In . SVG Version: 6.00 Build 0)  -->
<svg version="1.1" id="Layer_1" xmlns="http://www.w3.org/2000/svg" xmlns:xlink="http://www.w3.org/1999/xlink" x="0px" y="0px"
	 viewBox="0 0 769.3 289.8" style="enable-background:new 0 0 769.3 289.8;" xml:space="preserve">
<style type="text/css">
	.st0{clip-path:url(#SVGID_2_);}
	.st1{fill:#8DC9D3;}
	.st2{fill:#EE7F2E;}
	.st3{fill:#3E5B80;}
	.st4{fill:#09A0C3;}
	.st5{fill:#898A87;}
	.st6{fill:#FFFFFF;}
	.st7{fill:#ED6C4E;}
	.st8{fill:#ED6A5B;}
	.st9{fill:#787A77;}
	.st10{fill:#FEC345;}
</style>
<g>
	<g>
		<path class="st4" d="M108.8,179.5c5.8,5.2,18.3,10.4,27.6,10.4c7.5,0,10.5-2.4,10.5-6c0-3.7-6-4.9-13.5-6.2
			c-13.3-2.1-32.1-5.2-32.1-25.5c0-13.8,11.8-25.8,33.6-25.8c13.1,0,24.3,4.2,32.7,10.4l-9.6,16.5c-4.7-4.5-13.6-8.6-23-8.6
			c-5.8,0-9.9,2.4-9.9,5.5c0,3.4,4.2,4.1,12.5,5.5c13.3,2.4,33.1,5.7,33.1,26.9c0,14.9-13.1,25.9-35.7,25.9
			c-13.9,0-28.4-4.7-36.6-12L108.8,179.5z"/>
		<path class="st4" d="M231.8,161.2c0-9.6-5-12.6-13-12.6c-7.3,0-12.2,4.1-15.1,7.6v50.6h-25V98.6h25V138
			c4.7-5.5,13.9-11.5,27.1-11.5c17.8,0,25.9,10.1,25.9,24.5v55.8h-25V161.2z"/>
		<path class="st4" d="M316.3,199c-4.9,5.8-14.3,9.7-24.3,9.7c-12,0-26.9-8.1-26.9-25.8c0-19,14.9-24.6,26.9-24.6
			c10.4,0,19.6,3.2,24.3,9.1v-9.9c0-6.8-5.8-11.3-15.9-11.3c-7.8,0-15.9,2.9-22.2,8.3l-8.9-15.7c10.1-8.6,23.5-12.2,35.5-12.2
			c18.8,0,36.5,7,36.5,31.3v49h-25V199z M316.3,179.7c-2.6-3.6-8.4-5.5-13.9-5.5c-6.6,0-12.5,2.9-12.5,9.1c0,6.2,5.8,9.1,12.5,9.1
			c5.5,0,11.3-1.9,13.9-5.7V179.7z"/>
		<path class="st4" d="M354.6,128.5h25v9.9c5.2-6.3,15.1-11.8,24.5-11.8v24.2c-1.5-0.5-3.6-0.8-6.2-0.8c-6.5,0-15.1,2.8-18.3,7.3
			v49.6h-25V128.5z"/>
		<path class="st4" d="M447,126.5c23.2,0,40,17,40,43.6v5.3h-55.8c1.5,7.3,8.3,13.9,19.9,13.9c7,0,14.8-2.8,19.1-6.6l10.5,15.6
			c-7.8,7-20.8,10.4-32.7,10.4c-24.2,0-42.8-15.7-42.8-41.2C405.3,144.8,422.5,126.5,447,126.5z M430.9,159.3h32.3
			c-0.6-5.5-4.7-13.5-16.2-13.5C436.1,145.8,431.9,153.6,430.9,159.3z"/>
	</g>
	<g>
		<rect x="494.5" y="86.9" class="st1" width="25" height="108.1"/>
		<path class="st1" d="M545.2,81.1c-7.9,0-14.3,6.3-14.3,14.3c0,7.9,6.3,14.4,14.3,14.4c7.9,0,14.3-6.5,14.3-14.4
			C559.5,87.4,553.2,81.1,545.2,81.1z"/>
		<rect x="532.7" y="116.8" class="st1" width="25" height="78.3"/>
		<path class="st1" d="M666,173c-0.8,1-3.6,1.9-6.3,1.9c-4.4,0-7-3.4-7-7.9v-28.5h15.9v-21.7h-15.9V95.4h-24.8v21.4h-10.7h-2.3
			h-13.6v-3.2c0-6,3.4-9.2,8.6-9.2c2.3,0,4.5,0.5,6.5,1.6l4.5-17c-3.9-2.1-9.7-3.6-16.5-3.6c-16.2,0-28,10.9-28,27.6v3.9h-13v21.7
			h13v56.6h25v-56.6h13.6h2.3h10.7V174c0,15.1,8.6,23,24.5,23c9.2,0,15.4-2.3,18.5-5.2L666,173z"/>
	</g>
</g>
</svg>
